1 10 20
100 200 125
201 210 89
900 1000 174
1313 2121 180
13 3500 217
200999 231987 443
375000 420220 449
777777 800000 468
888888 900000 370
1 1000000 525
35 13 112
18 18000 279
2100 2400 183
2121 2323 183
212121 232323 443
555555 565000 421
30 15 112
967456 25000 525
77 12 116
88 88 18
99 99 26
47 47 105
11 11 15
3 3 8
1337 1337 45
100000 47000 351
3322 2121 217
800 777111 509
1881 181 182
190 45 125
45 190 125
67 12 113
90 13 116
13000 3000 268
76000 1000 340
14654 17689 279
99000 100500 341
111800 113200 323
50798 52003 309
71004 68009 312
12800 14002 276
16008 17002 266
15997 17007 266
45000 46000 314
65000 3500 340
12500 7500 268
500 2500 209
2 10 20
10 2 20
4 4 3
77 9000 262
8000 13000 268
44777 77744 351
1100 4422 238
633 844 171
288 305 118
832 713 153
713 832 153
281 713 171
281 832 171
832 317 171
832 512 171
90210 77479 338
78705 77008 351
22222 77777 351
800 3200 217
19 94 116
1435 1678 180
8 24 21
32 34 27
33 36 27
1 35 112
11 30 112
31 1 112
88 18 116
707 4100 238
200000 250000 443
300000 450000 449
450000 600000 470
350000 700000 509
46 2 112
99407 115003 354
78984 80135 307
67000 71000 312
8888 9999 260
2121 6666 262
906 909 55
105 107 101
