1 10 20
100 200 125
201 210 89
900 1000 174
1000 1050 156
2132 3590 217
1234 7890 262
2345 6789 262
3456 5678 238
4567 8567 262
5678 3456 238
6789 2345 262
7890 1234 262
1234 2345 183
2345 3456 217
3456 4567 238
4567 5678 236
5678 6789 262
6789 7890 257
7890 8900 252
8900 9000 247
9000 11111 268
2345 1234 183
3456 2345 217
4567 3456 238
5678 4567 236
6789 5678 262
7890 6789 257
8900 7890 252
9000 8900 247
11111 9000 268
1000000 999900 259
999900 1000000 259
900000 1000000 507
1000000 900000 507
899000 1000000 507
1000000 899000 507
888888 1000000 507
1000000 888888 507
10 20 21
10 30 112
10 40 112
10 50 112
10 60 113
10 70 113
10 80 116
10 90 116
10 100 119
20 10 21
30 10 112
40 10 112
50 10 112
60 10 113
70 10 113
80 10 116
90 10 116
100 10 119
100 200 125
100 300 128
100 400 144
100 500 144
100 600 144
100 700 145
100 800 171
100 900 179
100 1000 179
200 100 125
300 100 128
400 100 144
500 100 144
600 100 144
700 100 145
800 100 171
900 100 179
1000 100 179
1000 100 179
1000 2000 182
1000 3000 217
1000 4000 238
1000 5000 238
1000 6000 238
1000 7000 262
1000 8000 262
1000 9000 262
1000 10000 262
2000 1000 182
3000 1000 217
4000 1000 238
5000 1000 238
6000 1000 238
7000 1000 262
8000 1000 262
9000 1000 262
10000 1000 262
11000 1000 268
11000 20000 279
11000 30000 308
11000 40000 324
10001 50000 324
10010 60000 340
10100 70000 340
11000 80000 351
11000 90000 351
10010 100000 351
20100 10000 279
31000 10000 308
14000 10000 276
15000 10000 276
60001 10000 340
70010 10000 340
80100 10000 351
91000 10000 351
110000 10000 354
