............
----------------------------------------------------------------------
Ran 12 tests in 0.007s

OK
Name             Stmts   Miss Branch BrPart  Cover   Missing
------------------------------------------------------------
Collatz.py          29      0      8      0   100%
TestCollatz.py      55      0      0      0   100%
------------------------------------------------------------
TOTAL               84      0      8      0   100%
