coverage : ...............
At line:1 char:1
+ coverage run --branch TestCollatz.py >  TestCollatz.out 2>&1
+ ~~~~~~~~~~~~~~~~~~~~~~~~~~~~~~~~~~~~~~~~~~~~~~~~~~~~~~~~~~~~
    + CategoryInfo          : NotSpecified: (...............:String) [], RemoteException
    + FullyQualifiedErrorId : NativeCommandError
 
----------------------------------------------------------------------
Ran 15 tests in 0.535s

OK

Name             Stmts   Miss Branch BrPart  Cover   Missing
------------------------------------------------------------
Collatz.py          71      0     38      0   100%
TestCollatz.py      63      0      0      0   100%
------------------------------------------------------------
TOTAL              134      0     38      0   100%
